Hidden Markov Models
…
expected <- my_seq$states

tibble(
  nucleotide = 1:length(expected),
  actual = factor(expected),
  inferred = factor(inferred)
) |>
  pivot_longer(-nucleotide, names_to = "property", values_to = "state") -> res

res

# A tibble: 60 × 3
   nucleotide property state  
        <int> <chr>    <fct>  
 1          1 actual   AT-rich
 2          1 inferred AT-rich
 3          2 actual   AT-rich
 4          2 inferred AT-rich
 5          3 actual   GC-rich
 6          3 inferred AT-rich
 7          4 actual   GC-rich
 8          4 inferred GC-rich
 9          5 actual   GC-rich
10          5 inferred GC-rich
# ℹ 50 more rows
…
