Split single column of annotations into multiple columns in R
…
If you don’t mind having R (character) code in your data, you can
perform this transformation across all pivoted columns.

my_gtf_split %>%
  mutate(across(gene_id:protein_id, as.character))

# A tibble: 94 × 24
   chr   src    feat      start   end score strand frame gene_id gene_…¹ gene_…²
   <chr> <chr>  <chr>     <dbl> <dbl> <chr> <chr>  <chr> <chr>   <chr>   <chr>  
 1 chr1  HAVANA gene      11869 14409 .     +      .     ENSG00… transc… DDX11L1
 2 chr1  HAVANA transcri… 11869 14409 .     +      .     ENSG00… transc… DDX11L1
 3 chr1  HAVANA exon      11869 12227 .     +      .     ENSG00… transc… DDX11L1
 4 chr1  HAVANA exon      12613 12721 .     +      .     ENSG00… transc… DDX11L1
 5 chr1  HAVANA exon      13221 14409 .     +      .     ENSG00… transc… DDX11L1
 6 chr1  HAVANA transcri… 12010 13670 .     +      .     ENSG00… transc… DDX11L1
 7 chr1  HAVANA exon      12010 12057 .     +      .     ENSG00… transc… DDX11L1
 8 chr1  HAVANA exon      12179 12227 .     +      .     ENSG00… transc… DDX11L1
 9 chr1  HAVANA exon      12613 12697 .     +      .     ENSG00… transc… DDX11L1
10 chr1  HAVANA exon      12975 13052 .     +      .     ENSG00… transc… DDX11L1
# … with 84 more rows, 13 more variables: level <chr>, hgnc_id <chr>,
#   havana_gene <chr>, transcript_id <chr>, transcript_type <chr>,
#   transcript_name <chr>, transcript_support_level <chr>, tag <chr>,
#   havana_transcript <chr>, exon_number <chr>, exon_id <chr>, ont <chr>,
#   protein_id <chr>, and abbreviated variable names ¹​gene_type, ²​gene_name
…
